<svg xmlns="http://www.w3.org/2000/svg" width="16" height="16" viewBox="0 0 16 16">
  <g id="arrow" transform="translate(-214.271 -177)">
    <rect id="icon_bg" width="16" height="16" transform="translate(214.271 177)" fill="#5262f2" opacity="0"/>
    <path id="arrow-2" data-name="arrow" d="M100.728,151.215l4.449-4.449-4.449-4.45.558-.492,4.865,4.942h0l-4.929,4.942Z" transform="translate(118.843 38.362)" fill="#5262f2"/>
  </g>
</svg>
