<svg xmlns="http://www.w3.org/2000/svg" width="56" height="56" viewBox="0 0 56 56">
    <g transform="translate(-10 -24)">
        <path class="b"
            d="M17.973,20.787,12.081,14.9,17.973,9a1.514,1.514,0,0,0-2.141-2.141l-6.97,6.97a1.512,1.512,0,0,0,0,2.141l6.97,6.97a1.512,1.512,0,0,0,2.141,0,1.545,1.545,0,0,0,0-2.156Z"
            transform="translate(24.583 37.582)" />
    </g>
</svg>