<svg xmlns="http://www.w3.org/2000/svg" width="9.488" height="10" viewBox="0 0 9.488 10">
    <g id="calendar">
        <path id="패스_2204" d="M1196.5 278.6h-.008v1.365a.592.592 0 0 1-1.184 0V278.6h-4.146v1.365a.592.592 0 0 1-1.184 0V278.6a1.484 1.484 0 0 0-1.483 1.483v6.564a1.483 1.483 0 0 0 1.481 1.436h6.522a1.483 1.483 0 0 0 1.483-1.483v-6.522a1.483 1.483 0 0 0-1.481-1.478zm.693 7.847a.961.961 0 0 1-.96.961h-5.993a.962.962 0 0 1-.961-.961v-5.213h7.914z" class="cls-1" transform="translate(-1188.5 -278.086)"/>
        <path id="frame" d="M1229.467 458.952v5.448a1.2 1.2 0 0 0 1.2 1.2h5.993a1.2 1.2 0 0 0 1.2-1.2v-5.453zm8.155 5.453a.961.961 0 0 1-.96.961h-5.993a.962.962 0 0 1-.961-.961v-5.213h7.914z" class="cls-1" transform="translate(-1228.923 -456.046)"/>
        <path id="패스_2205" d="M1720.471 240.137a.355.355 0 0 0-.249-.1.349.349 0 0 0-.352.346v1.531a.341.341 0 0 0 .1.244.353.353 0 0 0 .249.1.349.349 0 0 0 .352-.346v-1.531a.342.342 0 0 0-.1-.244z" class="cls-1" transform="translate(-1712.817 -240.036)"/>
        <path id="패스_2206" d="M1318.872 240.137a.354.354 0 0 0-.249-.1.349.349 0 0 0-.352.346v1.531a.341.341 0 0 0 .1.244.354.354 0 0 0 .249.1.349.349 0 0 0 .352-.346v-1.531a.342.342 0 0 0-.1-.244z" class="cls-1" transform="translate(-1316.549 -240.036)"/>
        <path id="패스_2207" d="M1501.4 534.344a.5.5 0 0 0 .549-.4h.336v3.175h-.5V534.7h-.385z" class="cls-1" transform="translate(-1497.248 -529.236)"/>
    </g>
</svg>
