<svg xmlns="http://www.w3.org/2000/svg" width="54" height="45" viewBox="0 0 54 45">
  <g id="user_edit" data-name="user edit" transform="translate(-663.789 -1424.807)">
    <path id="패스_2226" data-name="패스 2226" d="M707.789,1449.807c-.071,0-.14.009-.211.011a22,22,0,1,0-21.789,18.989,21.9,21.9,0,0,0,13.146-4.359,10,10,0,1,0,8.854-14.641Z" fill="#fff"/>
    <path id="패스_2227" data-name="패스 2227" d="M713.205,1456.453h-2.792a.575.575,0,0,1-.571-.494l-.1-.639a.608.608,0,0,0-.571-.513h-2.782a.583.583,0,0,0-.571.513l-.1.639a.581.581,0,0,1-.571.494H702.37a.582.582,0,0,0-.581.58v.484h1.752a.67.67,0,0,1,.668.668v.01a.671.671,0,0,1-.665.677h-1.755v4.975a.54.54,0,0,0,.54.542h10.842a.625.625,0,0,0,.618-.619v-6.727A.588.588,0,0,0,713.205,1456.453Zm-5.387,7.125a2.9,2.9,0,1,1,2.9-2.9A2.9,2.9,0,0,1,707.818,1463.578Zm4.423-4.686a.678.678,0,0,1-.01-1.356h.01a.678.678,0,0,1,0,1.356Zm-3,1.79a1.452,1.452,0,1,1-1.452-1.452A1.452,1.452,0,0,1,709.242,1460.682Z"/>
    <path id="패스_2228" data-name="패스 2228" d="M698,1460a10.06,10.06,0,0,1,.2-1.97l-5.856-1.175a1.357,1.357,0,0,1-1.088-1.346v-1.381a16.4,16.4,0,0,0,1.134-2.021,11.1,11.1,0,0,1,.967-1.7,8.981,8.981,0,0,0,2.763-4.375,4.222,4.222,0,0,0-.387-3.241,24.382,24.382,0,0,0-.47-5.55c-.049-2.164-.442-3.381-1.431-4.446a4.244,4.244,0,0,0-2.551-1.071,4.426,4.426,0,0,1-.937-.22,9.7,9.7,0,0,0-4.637-1.209c-3.617.148-8.063,2.45-9.552,6.553a15.578,15.578,0,0,0-.376,4.949l-.036.991a4.4,4.4,0,0,0-.36,3.241,8.957,8.957,0,0,0,2.782,4.4,12.119,12.119,0,0,1,.964,1.686,16.94,16.94,0,0,0,1.138,2.011v1.381a1.365,1.365,0,0,1-1.093,1.346l-6.028,1.208a8.17,8.17,0,0,0-3.373,1.56,1.377,1.377,0,0,0-.219,1.934q.027.034.057.066a21.858,21.858,0,0,0,29.37,2.663A9.939,9.939,0,0,1,698,1460Z" fill="#f2f2f2"/>
  </g>
</svg>
