<svg xmlns="http://www.w3.org/2000/svg" width="31.999" height="31.999" viewBox="0 0 31.999 31.999">
    <g>
        <path fill="#fff" d="M15.349 20.568a4.524 4.524 0 0 0 4.42-4.642l.015-9.284A4.536 4.536 0 0 0 15.349 2a4.536 4.536 0 0 0-4.435 4.642v9.284a4.536 4.536 0 0 0 4.435 4.642zm7.835-4.642a7.836 7.836 0 1 1-15.671 0H5a10.644 10.644 0 0 0 8.87 10.4V31.4h2.957v-5.075a10.619 10.619 0 0 0 8.87-10.4z" transform="translate(3) translate(-2.654 -.696)"/>
        <path fill="none" d="M0 0h32v32H0z" transform="translate(3) translate(-3)"/>
    </g>
</svg>
